[0.000000] (-) TimerEvent: {}
[0.000400] (-) JobUnselected: {'identifier': 'kinect_ros2'}
[0.000491] (-) JobUnselected: {'identifier': 'my_cpp_pkg'}
[0.000712] (-) JobUnselected: {'identifier': 'my_py_pkg'}
[0.000858] (-) JobUnselected: {'identifier': 'orbbec_camera'}
[0.001022] (-) JobUnselected: {'identifier': 'orbbec_camera_msgs'}
[0.001137] (-) JobUnselected: {'identifier': 'pcd_demo'}
[0.001282] (-) JobUnselected: {'identifier': 'pcd_publisher'}
[0.001336] (orbbec_description) JobQueued: {'identifier': 'orbbec_description', 'dependencies': OrderedDict()}
[0.001391] (orbbec_description) JobStarted: {'identifier': 'orbbec_description'}
[0.056308] (orbbec_description) JobProgress: {'identifier': 'orbbec_description', 'progress': 'cmake'}
[0.056742] (orbbec_description) Command: {'cmd': ['/usr/bin/cmake', '/home/andres/Desktop/robot/ros2_ws/src/OrbbecSDK_ROS2/orbbec_description', '-DCMAKE_BUILD_TYPE=Release', '-DCMAKE_INSTALL_PREFIX=/home/andres/Desktop/robot/ros2_ws/install/orbbec_description'], 'cwd': '/home/andres/Desktop/robot/ros2_ws/build/orbbec_description', 'env': OrderedDict([('GJS_DEBUG_TOPICS', 'JS ERROR;JS LOG'), ('LESSOPEN', '| /usr/bin/lesspipe %s'), ('USER', 'andres'), ('XDG_SESSION_TYPE', 'x11'), ('SHLVL', '1'), ('LD_LIBRARY_PATH', '/home/andres/Desktop/robot/ros2_ws/install/orbbec_camera_msgs/lib:/home/andres/Desktop/robot/ros2_ws/install/kinect_ros2/lib:/opt/ros/humble/opt/rviz_ogre_vendor/lib:/opt/ros/humble/lib/x86_64-linux-gnu:/opt/ros/humble/lib'), ('HOME', '/home/andres'), ('OLDPWD', '/home/andres/Desktop/robot/ros2_ws/src/OrbbecSDK_ROS2/orbbec_camera/scripts'), ('DESKTOP_SESSION', 'ubuntu'), ('ROS_PYTHON_VERSION', '3'), ('GNOME_SHELL_SESSION_MODE', 'ubuntu'), ('GTK_MODULES', 'gail:atk-bridge'), ('MANAGERPID', '2124'), ('SYSTEMD_EXEC_PID', '2509'), ('DBUS_SESSION_BUS_ADDRESS', 'unix:path=/run/user/1000/bus'), ('COLORTERM', 'truecolor'), ('TERMINATOR_DBUS_NAME', 'net.tenshu.Terminator23558193cd9818af7fe4d2c2f5bd9d00f'), ('COLCON_PREFIX_PATH', '/home/andres/Desktop/robot/ros2_ws/install'), ('ROS_DISTRO', 'humble'), ('GTK_IM_MODULE', 'ibus'), ('LOGNAME', 'andres'), ('JOURNAL_STREAM', '8:28568'), ('_', '/usr/bin/colcon'), ('ROS_VERSION', '2'), ('XDG_SESSION_CLASS', 'user'), ('USERNAME', 'andres'), ('TERM', 'xterm-256color'), ('GNOME_DESKTOP_SESSION_ID', 'this-is-deprecated'), ('ROS_LOCALHOST_ONLY', '0'), ('WINDOWPATH', '2'), ('PATH', '/opt/ros/humble/bin:/usr/local/sbin:/usr/local/bin:/usr/sbin:/usr/bin:/sbin:/bin:/usr/games:/usr/local/games:/snap/bin:/snap/bin'), ('SESSION_MANAGER', 'local/andres-hq:@/tmp/.ICE-unix/2430,unix/andres-hq:/tmp/.ICE-unix/2430'), ('INVOCATION_ID', '4ee33a40796c4b2593600327afa9b40e'), ('XDG_MENU_PREFIX', 'gnome-'), ('XDG_RUNTIME_DIR', '/run/user/1000'), ('DISPLAY', ':1'), ('TERMINATOR_DBUS_PATH', '/net/tenshu/Terminator2'), ('LANG', 'en_US.UTF-8'), ('XDG_CURRENT_DESKTOP', 'ubuntu:GNOME'), ('IBUS_DISABLE_SNOOPER', '1'), ('RMW_IMPLEMENTATION', 'rmw_fastrtps_cpp'), ('XMODIFIERS', '@im=ibus'), ('XDG_SESSION_DESKTOP', 'ubuntu'), ('XAUTHORITY', '/run/user/1000/gdm/Xauthority'), ('LS_COLORS', 'rs=0:di=01;34:ln=01;36:mh=00:pi=40;33:so=01;35:do=01;35:bd=40;33;01:cd=40;33;01:or=40;31;01:mi=00:su=37;41:sg=30;43:ca=30;41:tw=30;42:ow=34;42:st=37;44:ex=01;32:*.tar=01;31:*.tgz=01;31:*.arc=01;31:*.arj=01;31:*.taz=01;31:*.lha=01;31:*.lz4=01;31:*.lzh=01;31:*.lzma=01;31:*.tlz=01;31:*.txz=01;31:*.tzo=01;31:*.t7z=01;31:*.zip=01;31:*.z=01;31:*.dz=01;31:*.gz=01;31:*.lrz=01;31:*.lz=01;31:*.lzo=01;31:*.xz=01;31:*.zst=01;31:*.tzst=01;31:*.bz2=01;31:*.bz=01;31:*.tbz=01;31:*.tbz2=01;31:*.tz=01;31:*.deb=01;31:*.rpm=01;31:*.jar=01;31:*.war=01;31:*.ear=01;31:*.sar=01;31:*.rar=01;31:*.alz=01;31:*.ace=01;31:*.zoo=01;31:*.cpio=01;31:*.7z=01;31:*.rz=01;31:*.cab=01;31:*.wim=01;31:*.swm=01;31:*.dwm=01;31:*.esd=01;31:*.jpg=01;35:*.jpeg=01;35:*.mjpg=01;35:*.mjpeg=01;35:*.gif=01;35:*.bmp=01;35:*.pbm=01;35:*.pgm=01;35:*.ppm=01;35:*.tga=01;35:*.xbm=01;35:*.xpm=01;35:*.tif=01;35:*.tiff=01;35:*.png=01;35:*.svg=01;35:*.svgz=01;35:*.mng=01;35:*.pcx=01;35:*.mov=01;35:*.mpg=01;35:*.mpeg=01;35:*.m2v=01;35:*.mkv=01;35:*.webm=01;35:*.webp=01;35:*.ogm=01;35:*.mp4=01;35:*.m4v=01;35:*.mp4v=01;35:*.vob=01;35:*.qt=01;35:*.nuv=01;35:*.wmv=01;35:*.asf=01;35:*.rm=01;35:*.rmvb=01;35:*.flc=01;35:*.avi=01;35:*.fli=01;35:*.flv=01;35:*.gl=01;35:*.dl=01;35:*.xcf=01;35:*.xwd=01;35:*.yuv=01;35:*.cgm=01;35:*.emf=01;35:*.ogv=01;35:*.ogx=01;35:*.aac=00;36:*.au=00;36:*.flac=00;36:*.m4a=00;36:*.mid=00;36:*.midi=00;36:*.mka=00;36:*.mp3=00;36:*.mpc=00;36:*.ogg=00;36:*.ra=00;36:*.wav=00;36:*.oga=00;36:*.opus=00;36:*.spx=00;36:*.xspf=00;36:'), ('SSH_AGENT_LAUNCHER', 'gnome-keyring'), ('SSH_AUTH_SOCK', '/run/user/1000/keyring/ssh'), ('ROS_DOMAIN_ID', '0'), ('AMENT_PREFIX_PATH', '/home/andres/Desktop/robot/ros2_ws/install/orbbec_camera_msgs:/home/andres/Desktop/robot/ros2_ws/install/pcd_publisher:/home/andres/Desktop/robot/ros2_ws/install/pcd_demo:/home/andres/Desktop/robot/ros2_ws/install/my_py_pkg:/home/andres/Desktop/robot/ros2_ws/install/my_cpp_pkg:/home/andres/Desktop/robot/ros2_ws/install/kinect_ros2:/opt/ros/humble'), ('SHELL', '/bin/bash'), ('TERMINATOR_UUID', 'urn:uuid:74140c2f-47b3-4bca-afa0-354eef21853d'), ('QT_ACCESSIBILITY', '1'), ('GDMSESSION', 'ubuntu'), ('LESSCLOSE', '/usr/bin/lesspipe %s %s'), ('GPG_AGENT_INFO', '/run/user/1000/gnupg/S.gpg-agent:0:1'), ('GJS_DEBUG_OUTPUT', 'stderr'), ('QT_IM_MODULE', 'ibus'), ('PWD', '/home/andres/Desktop/robot/ros2_ws/build/orbbec_description'), ('LC_ALL', 'en_US.UTF-8'), ('XDG_CONFIG_DIRS', '/etc/xdg/xdg-ubuntu:/etc/xdg'), ('XDG_DATA_DIRS', '/usr/share/ubuntu:/usr/share/gnome:/usr/local/share/:/usr/share/:/var/lib/snapd/desktop'), ('PYTHONPATH', '/home/andres/Desktop/robot/ros2_ws/install/orbbec_camera_msgs/local/lib/python3.10/dist-packages:/home/andres/ros2_ws/build/pcd_publisher:/home/andres/Desktop/robot/ros2_ws/install/pcd_publisher/lib/python3.10/site-packages:/home/andres/ros2_ws/build/pcd_demo:/home/andres/Desktop/robot/ros2_ws/install/pcd_demo/lib/python3.10/site-packages:/home/andres/Desktop/robot/ros2_ws/install/my_py_pkg/lib/python3.10/site-packages:/opt/ros/humble/lib/python3.10/site-packages:/opt/ros/humble/local/lib/python3.10/dist-packages'), ('COLCON', '1'), ('VTE_VERSION', '6800'), ('CMAKE_PREFIX_PATH', '/home/andres/Desktop/robot/ros2_ws/install/orbbec_camera_msgs:/home/andres/Desktop/robot/ros2_ws/install/my_cpp_pkg:/home/andres/Desktop/robot/ros2_ws/install/kinect_ros2:/home/andres/Desktop/robot/ros2_ws/install/pcd_publisher:/home/andres/Desktop/robot/ros2_ws/install/pcd_demo:/home/andres/Desktop/robot/ros2_ws/install/my_py_pkg:/opt/ros/humble')]), 'shell': False}
[0.099349] (-) TimerEvent: {}
[0.180130] (orbbec_description) StdoutLine: {'line': b'-- The C compiler identification is GNU 11.4.0\n'}
[0.199521] (-) TimerEvent: {}
[0.253812] (orbbec_description) StdoutLine: {'line': b'-- The CXX compiler identification is GNU 11.4.0\n'}
[0.260977] (orbbec_description) StdoutLine: {'line': b'-- Detecting C compiler ABI info\n'}
[0.299685] (-) TimerEvent: {}
[0.335096] (orbbec_description) StdoutLine: {'line': b'-- Detecting C compiler ABI info - done\n'}
[0.351038] (orbbec_description) StdoutLine: {'line': b'-- Check for working C compiler: /usr/bin/cc - skipped\n'}
[0.351536] (orbbec_description) StdoutLine: {'line': b'-- Detecting C compile features\n'}
[0.352436] (orbbec_description) StdoutLine: {'line': b'-- Detecting C compile features - done\n'}
[0.359313] (orbbec_description) StdoutLine: {'line': b'-- Detecting CXX compiler ABI info\n'}
[0.399828] (-) TimerEvent: {}
[0.490368] (orbbec_description) StdoutLine: {'line': b'-- Detecting CXX compiler ABI info - done\n'}
[0.496992] (orbbec_description) StdoutLine: {'line': b'-- Check for working CXX compiler: /usr/bin/c++ - skipped\n'}
[0.497321] (orbbec_description) StdoutLine: {'line': b'-- Detecting CXX compile features\n'}
[0.497453] (orbbec_description) StdoutLine: {'line': b'-- Detecting CXX compile features - done\n'}
[0.500044] (orbbec_description) StdoutLine: {'line': b'-- Found ament_cmake: 1.3.7 (/opt/ros/humble/share/ament_cmake/cmake)\n'}
[0.500137] (-) TimerEvent: {}
[0.600386] (-) TimerEvent: {}
[0.700820] (-) TimerEvent: {}
[0.727161] (orbbec_description) StdoutLine: {'line': b'-- Found Python3: /usr/bin/python3.10 (found version "3.10.12") found components: Interpreter \n'}
[0.800966] (-) TimerEvent: {}
[0.901358] (-) TimerEvent: {}
[0.906785] (orbbec_description) StdoutLine: {'line': b'-- Found ament_lint_auto: 0.12.10 (/opt/ros/humble/share/ament_lint_auto/cmake)\n'}
[0.980928] (orbbec_description) StdoutLine: {'line': b"-- Added test 'copyright' to check source files copyright and LICENSE\n"}
[0.983150] (orbbec_description) StdoutLine: {'line': b"-- Added test 'lint_cmake' to check CMake code style\n"}
[0.984426] (orbbec_description) StdoutLine: {'line': b"-- Added test 'xmllint' to check XML markup files\n"}
[0.985643] (orbbec_description) StdoutLine: {'line': b'-- Configuring done\n'}
[0.988525] (orbbec_description) StdoutLine: {'line': b'-- Generating done\n'}
[0.989230] (orbbec_description) StdoutLine: {'line': b'-- Build files have been written to: /home/andres/Desktop/robot/ros2_ws/build/orbbec_description\n'}
[0.993409] (orbbec_description) CommandEnded: {'returncode': 0}
[0.995744] (orbbec_description) JobProgress: {'identifier': 'orbbec_description', 'progress': 'build'}
[0.995818] (orbbec_description) Command: {'cmd': ['/usr/bin/cmake', '--build', '/home/andres/Desktop/robot/ros2_ws/build/orbbec_description', '--', '-j16', '-l16'], 'cwd': '/home/andres/Desktop/robot/ros2_ws/build/orbbec_description', 'env': OrderedDict([('GJS_DEBUG_TOPICS', 'JS ERROR;JS LOG'), ('LESSOPEN', '| /usr/bin/lesspipe %s'), ('USER', 'andres'), ('XDG_SESSION_TYPE', 'x11'), ('SHLVL', '1'), ('LD_LIBRARY_PATH', '/home/andres/Desktop/robot/ros2_ws/install/orbbec_camera_msgs/lib:/home/andres/Desktop/robot/ros2_ws/install/kinect_ros2/lib:/opt/ros/humble/opt/rviz_ogre_vendor/lib:/opt/ros/humble/lib/x86_64-linux-gnu:/opt/ros/humble/lib'), ('HOME', '/home/andres'), ('OLDPWD', '/home/andres/Desktop/robot/ros2_ws/src/OrbbecSDK_ROS2/orbbec_camera/scripts'), ('DESKTOP_SESSION', 'ubuntu'), ('ROS_PYTHON_VERSION', '3'), ('GNOME_SHELL_SESSION_MODE', 'ubuntu'), ('GTK_MODULES', 'gail:atk-bridge'), ('MANAGERPID', '2124'), ('SYSTEMD_EXEC_PID', '2509'), ('DBUS_SESSION_BUS_ADDRESS', 'unix:path=/run/user/1000/bus'), ('COLORTERM', 'truecolor'), ('TERMINATOR_DBUS_NAME', 'net.tenshu.Terminator23558193cd9818af7fe4d2c2f5bd9d00f'), ('COLCON_PREFIX_PATH', '/home/andres/Desktop/robot/ros2_ws/install'), ('ROS_DISTRO', 'humble'), ('GTK_IM_MODULE', 'ibus'), ('LOGNAME', 'andres'), ('JOURNAL_STREAM', '8:28568'), ('_', '/usr/bin/colcon'), ('ROS_VERSION', '2'), ('XDG_SESSION_CLASS', 'user'), ('USERNAME', 'andres'), ('TERM', 'xterm-256color'), ('GNOME_DESKTOP_SESSION_ID', 'this-is-deprecated'), ('ROS_LOCALHOST_ONLY', '0'), ('WINDOWPATH', '2'), ('PATH', '/opt/ros/humble/bin:/usr/local/sbin:/usr/local/bin:/usr/sbin:/usr/bin:/sbin:/bin:/usr/games:/usr/local/games:/snap/bin:/snap/bin'), ('SESSION_MANAGER', 'local/andres-hq:@/tmp/.ICE-unix/2430,unix/andres-hq:/tmp/.ICE-unix/2430'), ('INVOCATION_ID', '4ee33a40796c4b2593600327afa9b40e'), ('XDG_MENU_PREFIX', 'gnome-'), ('XDG_RUNTIME_DIR', '/run/user/1000'), ('DISPLAY', ':1'), ('TERMINATOR_DBUS_PATH', '/net/tenshu/Terminator2'), ('LANG', 'en_US.UTF-8'), ('XDG_CURRENT_DESKTOP', 'ubuntu:GNOME'), ('IBUS_DISABLE_SNOOPER', '1'), ('RMW_IMPLEMENTATION', 'rmw_fastrtps_cpp'), ('XMODIFIERS', '@im=ibus'), ('XDG_SESSION_DESKTOP', 'ubuntu'), ('XAUTHORITY', '/run/user/1000/gdm/Xauthority'), ('LS_COLORS', 'rs=0:di=01;34:ln=01;36:mh=00:pi=40;33:so=01;35:do=01;35:bd=40;33;01:cd=40;33;01:or=40;31;01:mi=00:su=37;41:sg=30;43:ca=30;41:tw=30;42:ow=34;42:st=37;44:ex=01;32:*.tar=01;31:*.tgz=01;31:*.arc=01;31:*.arj=01;31:*.taz=01;31:*.lha=01;31:*.lz4=01;31:*.lzh=01;31:*.lzma=01;31:*.tlz=01;31:*.txz=01;31:*.tzo=01;31:*.t7z=01;31:*.zip=01;31:*.z=01;31:*.dz=01;31:*.gz=01;31:*.lrz=01;31:*.lz=01;31:*.lzo=01;31:*.xz=01;31:*.zst=01;31:*.tzst=01;31:*.bz2=01;31:*.bz=01;31:*.tbz=01;31:*.tbz2=01;31:*.tz=01;31:*.deb=01;31:*.rpm=01;31:*.jar=01;31:*.war=01;31:*.ear=01;31:*.sar=01;31:*.rar=01;31:*.alz=01;31:*.ace=01;31:*.zoo=01;31:*.cpio=01;31:*.7z=01;31:*.rz=01;31:*.cab=01;31:*.wim=01;31:*.swm=01;31:*.dwm=01;31:*.esd=01;31:*.jpg=01;35:*.jpeg=01;35:*.mjpg=01;35:*.mjpeg=01;35:*.gif=01;35:*.bmp=01;35:*.pbm=01;35:*.pgm=01;35:*.ppm=01;35:*.tga=01;35:*.xbm=01;35:*.xpm=01;35:*.tif=01;35:*.tiff=01;35:*.png=01;35:*.svg=01;35:*.svgz=01;35:*.mng=01;35:*.pcx=01;35:*.mov=01;35:*.mpg=01;35:*.mpeg=01;35:*.m2v=01;35:*.mkv=01;35:*.webm=01;35:*.webp=01;35:*.ogm=01;35:*.mp4=01;35:*.m4v=01;35:*.mp4v=01;35:*.vob=01;35:*.qt=01;35:*.nuv=01;35:*.wmv=01;35:*.asf=01;35:*.rm=01;35:*.rmvb=01;35:*.flc=01;35:*.avi=01;35:*.fli=01;35:*.flv=01;35:*.gl=01;35:*.dl=01;35:*.xcf=01;35:*.xwd=01;35:*.yuv=01;35:*.cgm=01;35:*.emf=01;35:*.ogv=01;35:*.ogx=01;35:*.aac=00;36:*.au=00;36:*.flac=00;36:*.m4a=00;36:*.mid=00;36:*.midi=00;36:*.mka=00;36:*.mp3=00;36:*.mpc=00;36:*.ogg=00;36:*.ra=00;36:*.wav=00;36:*.oga=00;36:*.opus=00;36:*.spx=00;36:*.xspf=00;36:'), ('SSH_AGENT_LAUNCHER', 'gnome-keyring'), ('SSH_AUTH_SOCK', '/run/user/1000/keyring/ssh'), ('ROS_DOMAIN_ID', '0'), ('AMENT_PREFIX_PATH', '/home/andres/Desktop/robot/ros2_ws/install/orbbec_camera_msgs:/home/andres/Desktop/robot/ros2_ws/install/pcd_publisher:/home/andres/Desktop/robot/ros2_ws/install/pcd_demo:/home/andres/Desktop/robot/ros2_ws/install/my_py_pkg:/home/andres/Desktop/robot/ros2_ws/install/my_cpp_pkg:/home/andres/Desktop/robot/ros2_ws/install/kinect_ros2:/opt/ros/humble'), ('SHELL', '/bin/bash'), ('TERMINATOR_UUID', 'urn:uuid:74140c2f-47b3-4bca-afa0-354eef21853d'), ('QT_ACCESSIBILITY', '1'), ('GDMSESSION', 'ubuntu'), ('LESSCLOSE', '/usr/bin/lesspipe %s %s'), ('GPG_AGENT_INFO', '/run/user/1000/gnupg/S.gpg-agent:0:1'), ('GJS_DEBUG_OUTPUT', 'stderr'), ('QT_IM_MODULE', 'ibus'), ('PWD', '/home/andres/Desktop/robot/ros2_ws/build/orbbec_description'), ('LC_ALL', 'en_US.UTF-8'), ('XDG_CONFIG_DIRS', '/etc/xdg/xdg-ubuntu:/etc/xdg'), ('XDG_DATA_DIRS', '/usr/share/ubuntu:/usr/share/gnome:/usr/local/share/:/usr/share/:/var/lib/snapd/desktop'), ('PYTHONPATH', '/home/andres/Desktop/robot/ros2_ws/install/orbbec_camera_msgs/local/lib/python3.10/dist-packages:/home/andres/ros2_ws/build/pcd_publisher:/home/andres/Desktop/robot/ros2_ws/install/pcd_publisher/lib/python3.10/site-packages:/home/andres/ros2_ws/build/pcd_demo:/home/andres/Desktop/robot/ros2_ws/install/pcd_demo/lib/python3.10/site-packages:/home/andres/Desktop/robot/ros2_ws/install/my_py_pkg/lib/python3.10/site-packages:/opt/ros/humble/lib/python3.10/site-packages:/opt/ros/humble/local/lib/python3.10/dist-packages'), ('COLCON', '1'), ('VTE_VERSION', '6800'), ('CMAKE_PREFIX_PATH', '/home/andres/Desktop/robot/ros2_ws/install/orbbec_camera_msgs:/home/andres/Desktop/robot/ros2_ws/install/my_cpp_pkg:/home/andres/Desktop/robot/ros2_ws/install/kinect_ros2:/home/andres/Desktop/robot/ros2_ws/install/pcd_publisher:/home/andres/Desktop/robot/ros2_ws/install/pcd_demo:/home/andres/Desktop/robot/ros2_ws/install/my_py_pkg:/opt/ros/humble')]), 'shell': False}
[1.001497] (-) TimerEvent: {}
[1.056612] (orbbec_description) CommandEnded: {'returncode': 0}
[1.090726] (orbbec_description) JobProgress: {'identifier': 'orbbec_description', 'progress': 'install'}
[1.100948] (orbbec_description) Command: {'cmd': ['/usr/bin/cmake', '--install', '/home/andres/Desktop/robot/ros2_ws/build/orbbec_description'], 'cwd': '/home/andres/Desktop/robot/ros2_ws/build/orbbec_description', 'env': OrderedDict([('GJS_DEBUG_TOPICS', 'JS ERROR;JS LOG'), ('LESSOPEN', '| /usr/bin/lesspipe %s'), ('USER', 'andres'), ('XDG_SESSION_TYPE', 'x11'), ('SHLVL', '1'), ('LD_LIBRARY_PATH', '/home/andres/Desktop/robot/ros2_ws/install/orbbec_camera_msgs/lib:/home/andres/Desktop/robot/ros2_ws/install/kinect_ros2/lib:/opt/ros/humble/opt/rviz_ogre_vendor/lib:/opt/ros/humble/lib/x86_64-linux-gnu:/opt/ros/humble/lib'), ('HOME', '/home/andres'), ('OLDPWD', '/home/andres/Desktop/robot/ros2_ws/src/OrbbecSDK_ROS2/orbbec_camera/scripts'), ('DESKTOP_SESSION', 'ubuntu'), ('ROS_PYTHON_VERSION', '3'), ('GNOME_SHELL_SESSION_MODE', 'ubuntu'), ('GTK_MODULES', 'gail:atk-bridge'), ('MANAGERPID', '2124'), ('SYSTEMD_EXEC_PID', '2509'), ('DBUS_SESSION_BUS_ADDRESS', 'unix:path=/run/user/1000/bus'), ('COLORTERM', 'truecolor'), ('TERMINATOR_DBUS_NAME', 'net.tenshu.Terminator23558193cd9818af7fe4d2c2f5bd9d00f'), ('COLCON_PREFIX_PATH', '/home/andres/Desktop/robot/ros2_ws/install'), ('ROS_DISTRO', 'humble'), ('GTK_IM_MODULE', 'ibus'), ('LOGNAME', 'andres'), ('JOURNAL_STREAM', '8:28568'), ('_', '/usr/bin/colcon'), ('ROS_VERSION', '2'), ('XDG_SESSION_CLASS', 'user'), ('USERNAME', 'andres'), ('TERM', 'xterm-256color'), ('GNOME_DESKTOP_SESSION_ID', 'this-is-deprecated'), ('ROS_LOCALHOST_ONLY', '0'), ('WINDOWPATH', '2'), ('PATH', '/opt/ros/humble/bin:/usr/local/sbin:/usr/local/bin:/usr/sbin:/usr/bin:/sbin:/bin:/usr/games:/usr/local/games:/snap/bin:/snap/bin'), ('SESSION_MANAGER', 'local/andres-hq:@/tmp/.ICE-unix/2430,unix/andres-hq:/tmp/.ICE-unix/2430'), ('INVOCATION_ID', '4ee33a40796c4b2593600327afa9b40e'), ('XDG_MENU_PREFIX', 'gnome-'), ('XDG_RUNTIME_DIR', '/run/user/1000'), ('DISPLAY', ':1'), ('TERMINATOR_DBUS_PATH', '/net/tenshu/Terminator2'), ('LANG', 'en_US.UTF-8'), ('XDG_CURRENT_DESKTOP', 'ubuntu:GNOME'), ('IBUS_DISABLE_SNOOPER', '1'), ('RMW_IMPLEMENTATION', 'rmw_fastrtps_cpp'), ('XMODIFIERS', '@im=ibus'), ('XDG_SESSION_DESKTOP', 'ubuntu'), ('XAUTHORITY', '/run/user/1000/gdm/Xauthority'), ('LS_COLORS', 'rs=0:di=01;34:ln=01;36:mh=00:pi=40;33:so=01;35:do=01;35:bd=40;33;01:cd=40;33;01:or=40;31;01:mi=00:su=37;41:sg=30;43:ca=30;41:tw=30;42:ow=34;42:st=37;44:ex=01;32:*.tar=01;31:*.tgz=01;31:*.arc=01;31:*.arj=01;31:*.taz=01;31:*.lha=01;31:*.lz4=01;31:*.lzh=01;31:*.lzma=01;31:*.tlz=01;31:*.txz=01;31:*.tzo=01;31:*.t7z=01;31:*.zip=01;31:*.z=01;31:*.dz=01;31:*.gz=01;31:*.lrz=01;31:*.lz=01;31:*.lzo=01;31:*.xz=01;31:*.zst=01;31:*.tzst=01;31:*.bz2=01;31:*.bz=01;31:*.tbz=01;31:*.tbz2=01;31:*.tz=01;31:*.deb=01;31:*.rpm=01;31:*.jar=01;31:*.war=01;31:*.ear=01;31:*.sar=01;31:*.rar=01;31:*.alz=01;31:*.ace=01;31:*.zoo=01;31:*.cpio=01;31:*.7z=01;31:*.rz=01;31:*.cab=01;31:*.wim=01;31:*.swm=01;31:*.dwm=01;31:*.esd=01;31:*.jpg=01;35:*.jpeg=01;35:*.mjpg=01;35:*.mjpeg=01;35:*.gif=01;35:*.bmp=01;35:*.pbm=01;35:*.pgm=01;35:*.ppm=01;35:*.tga=01;35:*.xbm=01;35:*.xpm=01;35:*.tif=01;35:*.tiff=01;35:*.png=01;35:*.svg=01;35:*.svgz=01;35:*.mng=01;35:*.pcx=01;35:*.mov=01;35:*.mpg=01;35:*.mpeg=01;35:*.m2v=01;35:*.mkv=01;35:*.webm=01;35:*.webp=01;35:*.ogm=01;35:*.mp4=01;35:*.m4v=01;35:*.mp4v=01;35:*.vob=01;35:*.qt=01;35:*.nuv=01;35:*.wmv=01;35:*.asf=01;35:*.rm=01;35:*.rmvb=01;35:*.flc=01;35:*.avi=01;35:*.fli=01;35:*.flv=01;35:*.gl=01;35:*.dl=01;35:*.xcf=01;35:*.xwd=01;35:*.yuv=01;35:*.cgm=01;35:*.emf=01;35:*.ogv=01;35:*.ogx=01;35:*.aac=00;36:*.au=00;36:*.flac=00;36:*.m4a=00;36:*.mid=00;36:*.midi=00;36:*.mka=00;36:*.mp3=00;36:*.mpc=00;36:*.ogg=00;36:*.ra=00;36:*.wav=00;36:*.oga=00;36:*.opus=00;36:*.spx=00;36:*.xspf=00;36:'), ('SSH_AGENT_LAUNCHER', 'gnome-keyring'), ('SSH_AUTH_SOCK', '/run/user/1000/keyring/ssh'), ('ROS_DOMAIN_ID', '0'), ('AMENT_PREFIX_PATH', '/home/andres/Desktop/robot/ros2_ws/install/orbbec_camera_msgs:/home/andres/Desktop/robot/ros2_ws/install/pcd_publisher:/home/andres/Desktop/robot/ros2_ws/install/pcd_demo:/home/andres/Desktop/robot/ros2_ws/install/my_py_pkg:/home/andres/Desktop/robot/ros2_ws/install/my_cpp_pkg:/home/andres/Desktop/robot/ros2_ws/install/kinect_ros2:/opt/ros/humble'), ('SHELL', '/bin/bash'), ('TERMINATOR_UUID', 'urn:uuid:74140c2f-47b3-4bca-afa0-354eef21853d'), ('QT_ACCESSIBILITY', '1'), ('GDMSESSION', 'ubuntu'), ('LESSCLOSE', '/usr/bin/lesspipe %s %s'), ('GPG_AGENT_INFO', '/run/user/1000/gnupg/S.gpg-agent:0:1'), ('GJS_DEBUG_OUTPUT', 'stderr'), ('QT_IM_MODULE', 'ibus'), ('PWD', '/home/andres/Desktop/robot/ros2_ws/build/orbbec_description'), ('LC_ALL', 'en_US.UTF-8'), ('XDG_CONFIG_DIRS', '/etc/xdg/xdg-ubuntu:/etc/xdg'), ('XDG_DATA_DIRS', '/usr/share/ubuntu:/usr/share/gnome:/usr/local/share/:/usr/share/:/var/lib/snapd/desktop'), ('PYTHONPATH', '/home/andres/Desktop/robot/ros2_ws/install/orbbec_camera_msgs/local/lib/python3.10/dist-packages:/home/andres/ros2_ws/build/pcd_publisher:/home/andres/Desktop/robot/ros2_ws/install/pcd_publisher/lib/python3.10/site-packages:/home/andres/ros2_ws/build/pcd_demo:/home/andres/Desktop/robot/ros2_ws/install/pcd_demo/lib/python3.10/site-packages:/home/andres/Desktop/robot/ros2_ws/install/my_py_pkg/lib/python3.10/site-packages:/opt/ros/humble/lib/python3.10/site-packages:/opt/ros/humble/local/lib/python3.10/dist-packages'), ('COLCON', '1'), ('VTE_VERSION', '6800'), ('CMAKE_PREFIX_PATH', '/home/andres/Desktop/robot/ros2_ws/install/orbbec_camera_msgs:/home/andres/Desktop/robot/ros2_ws/install/my_cpp_pkg:/home/andres/Desktop/robot/ros2_ws/install/kinect_ros2:/home/andres/Desktop/robot/ros2_ws/install/pcd_publisher:/home/andres/Desktop/robot/ros2_ws/install/pcd_demo:/home/andres/Desktop/robot/ros2_ws/install/my_py_pkg:/opt/ros/humble')]), 'shell': False}
[1.101563] (-) TimerEvent: {}
[1.107948] (orbbec_description) StdoutLine: {'line': b'-- Install configuration: "Release"\n'}
[1.108375] (orbbec_description) StdoutLine: {'line': b'-- Installing: /home/andres/Desktop/robot/ros2_ws/install/orbbec_description/share/ament_index/resource_index/package_run_dependencies/orbbec_description\n'}
[1.108599] (orbbec_description) StdoutLine: {'line': b'-- Installing: /home/andres/Desktop/robot/ros2_ws/install/orbbec_description/share/ament_index/resource_index/parent_prefix_path/orbbec_description\n'}
[1.108732] (orbbec_description) StdoutLine: {'line': b'-- Installing: /home/andres/Desktop/robot/ros2_ws/install/orbbec_description/share/orbbec_description/environment/ament_prefix_path.sh\n'}
[1.108921] (orbbec_description) StdoutLine: {'line': b'-- Installing: /home/andres/Desktop/robot/ros2_ws/install/orbbec_description/share/orbbec_description/environment/ament_prefix_path.dsv\n'}
[1.109102] (orbbec_description) StdoutLine: {'line': b'-- Installing: /home/andres/Desktop/robot/ros2_ws/install/orbbec_description/share/orbbec_description/environment/path.sh\n'}
[1.109288] (orbbec_description) StdoutLine: {'line': b'-- Installing: /home/andres/Desktop/robot/ros2_ws/install/orbbec_description/share/orbbec_description/environment/path.dsv\n'}
[1.109440] (orbbec_description) StdoutLine: {'line': b'-- Installing: /home/andres/Desktop/robot/ros2_ws/install/orbbec_description/share/orbbec_description/local_setup.bash\n'}
[1.109591] (orbbec_description) StdoutLine: {'line': b'-- Installing: /home/andres/Desktop/robot/ros2_ws/install/orbbec_description/share/orbbec_description/local_setup.sh\n'}
[1.109727] (orbbec_description) StdoutLine: {'line': b'-- Installing: /home/andres/Desktop/robot/ros2_ws/install/orbbec_description/share/orbbec_description/local_setup.zsh\n'}
[1.109784] (orbbec_description) StdoutLine: {'line': b'-- Installing: /home/andres/Desktop/robot/ros2_ws/install/orbbec_description/share/orbbec_description/local_setup.dsv\n'}
[1.109859] (orbbec_description) StdoutLine: {'line': b'-- Installing: /home/andres/Desktop/robot/ros2_ws/install/orbbec_description/share/orbbec_description/package.dsv\n'}
[1.109914] (orbbec_description) StdoutLine: {'line': b'-- Installing: /home/andres/Desktop/robot/ros2_ws/install/orbbec_description/share/ament_index/resource_index/packages/orbbec_description\n'}
[1.109991] (orbbec_description) StdoutLine: {'line': b'-- Installing: /home/andres/Desktop/robot/ros2_ws/install/orbbec_description/share/orbbec_description/cmake/orbbec_descriptionConfig.cmake\n'}
[1.110046] (orbbec_description) StdoutLine: {'line': b'-- Installing: /home/andres/Desktop/robot/ros2_ws/install/orbbec_description/share/orbbec_description/cmake/orbbec_descriptionConfig-version.cmake\n'}
[1.110140] (orbbec_description) StdoutLine: {'line': b'-- Installing: /home/andres/Desktop/robot/ros2_ws/install/orbbec_description/share/orbbec_description/package.xml\n'}
[1.112451] (orbbec_description) CommandEnded: {'returncode': 0}
[1.201865] (-) TimerEvent: {}
[1.302577] (-) TimerEvent: {}
[1.303406] (orbbec_description) JobEnded: {'identifier': 'orbbec_description', 'rc': 0}
[1.304169] (-) EventReactorShutdown: {}
