[2.115s] Invoking command in '/home/andres/Desktop/robot/ros2_ws/src/vision_opencv/opencv_tests': AMENT_PREFIX_PATH=/home/andres/Desktop/robot/ros2_ws/install/cv_bridge:${AMENT_PREFIX_PATH} CMAKE_PREFIX_PATH=/home/andres/Desktop/robot/ros2_ws/install/cv_bridge:${CMAKE_PREFIX_PATH} LD_LIBRARY_PATH=/home/andres/Desktop/robot/ros2_ws/install/cv_bridge/lib:${LD_LIBRARY_PATH} PYTHONPATH=/home/andres/Desktop/robot/ros2_ws/build/opencv_tests/prefix_override:/home/andres/Desktop/robot/ros2_ws/install/opencv_tests/lib/python3.10/site-packages:/home/andres/Desktop/robot/ros2_ws/install/cv_bridge/local/lib/python3.10/dist-packages:${PYTHONPATH} /usr/bin/python3 setup.py egg_info --egg-base ../../../build/opencv_tests build --build-base /home/andres/Desktop/robot/ros2_ws/build/opencv_tests/build install --record /home/andres/Desktop/robot/ros2_ws/build/opencv_tests/install.log --single-version-externally-managed
[2.673s] running egg_info
[2.674s] creating ../../../build/opencv_tests/opencv_tests.egg-info
[2.675s] writing ../../../build/opencv_tests/opencv_tests.egg-info/PKG-INFO
[2.675s] writing dependency_links to ../../../build/opencv_tests/opencv_tests.egg-info/dependency_links.txt
[2.675s] writing entry points to ../../../build/opencv_tests/opencv_tests.egg-info/entry_points.txt
[2.676s] writing requirements to ../../../build/opencv_tests/opencv_tests.egg-info/requires.txt
[2.676s] writing top-level names to ../../../build/opencv_tests/opencv_tests.egg-info/top_level.txt
[2.677s] writing manifest file '../../../build/opencv_tests/opencv_tests.egg-info/SOURCES.txt'
[2.681s] reading manifest file '../../../build/opencv_tests/opencv_tests.egg-info/SOURCES.txt'
[2.682s] writing manifest file '../../../build/opencv_tests/opencv_tests.egg-info/SOURCES.txt'
[2.683s] running build
[2.683s] running build_py
[2.683s] creating /home/andres/Desktop/robot/ros2_ws/build/opencv_tests/build
[2.683s] creating /home/andres/Desktop/robot/ros2_ws/build/opencv_tests/build/lib
[2.684s] creating /home/andres/Desktop/robot/ros2_ws/build/opencv_tests/build/lib/opencv_tests
[2.684s] copying opencv_tests/source.py -> /home/andres/Desktop/robot/ros2_ws/build/opencv_tests/build/lib/opencv_tests
[2.684s] copying opencv_tests/__init__.py -> /home/andres/Desktop/robot/ros2_ws/build/opencv_tests/build/lib/opencv_tests
[2.684s] copying opencv_tests/rosfacedetect.py -> /home/andres/Desktop/robot/ros2_ws/build/opencv_tests/build/lib/opencv_tests
[2.685s] copying opencv_tests/broadcast.py -> /home/andres/Desktop/robot/ros2_ws/build/opencv_tests/build/lib/opencv_tests
[2.685s] running install
[2.686s] running install_lib
[2.688s] creating /home/andres/Desktop/robot/ros2_ws/install/opencv_tests/lib/python3.10/site-packages/opencv_tests
[2.688s] copying /home/andres/Desktop/robot/ros2_ws/build/opencv_tests/build/lib/opencv_tests/source.py -> /home/andres/Desktop/robot/ros2_ws/install/opencv_tests/lib/python3.10/site-packages/opencv_tests
[2.688s] copying /home/andres/Desktop/robot/ros2_ws/build/opencv_tests/build/lib/opencv_tests/__init__.py -> /home/andres/Desktop/robot/ros2_ws/install/opencv_tests/lib/python3.10/site-packages/opencv_tests
[2.688s] copying /home/andres/Desktop/robot/ros2_ws/build/opencv_tests/build/lib/opencv_tests/rosfacedetect.py -> /home/andres/Desktop/robot/ros2_ws/install/opencv_tests/lib/python3.10/site-packages/opencv_tests
[2.689s] copying /home/andres/Desktop/robot/ros2_ws/build/opencv_tests/build/lib/opencv_tests/broadcast.py -> /home/andres/Desktop/robot/ros2_ws/install/opencv_tests/lib/python3.10/site-packages/opencv_tests
[2.690s] byte-compiling /home/andres/Desktop/robot/ros2_ws/install/opencv_tests/lib/python3.10/site-packages/opencv_tests/source.py to source.cpython-310.pyc
[2.692s] byte-compiling /home/andres/Desktop/robot/ros2_ws/install/opencv_tests/lib/python3.10/site-packages/opencv_tests/__init__.py to __init__.cpython-310.pyc
[2.692s] byte-compiling /home/andres/Desktop/robot/ros2_ws/install/opencv_tests/lib/python3.10/site-packages/opencv_tests/rosfacedetect.py to rosfacedetect.cpython-310.pyc
[2.694s] byte-compiling /home/andres/Desktop/robot/ros2_ws/install/opencv_tests/lib/python3.10/site-packages/opencv_tests/broadcast.py to broadcast.cpython-310.pyc
[2.695s] running install_data
[2.696s] creating /home/andres/Desktop/robot/ros2_ws/install/opencv_tests/share/ament_index
[2.697s] creating /home/andres/Desktop/robot/ros2_ws/install/opencv_tests/share/ament_index/resource_index
[2.697s] creating /home/andres/Desktop/robot/ros2_ws/install/opencv_tests/share/ament_index/resource_index/packages
[2.697s] copying resource/opencv_tests -> /home/andres/Desktop/robot/ros2_ws/install/opencv_tests/share/ament_index/resource_index/packages
[2.697s] copying package.xml -> /home/andres/Desktop/robot/ros2_ws/install/opencv_tests/share/opencv_tests
[2.697s] running install_egg_info
[2.701s] Copying ../../../build/opencv_tests/opencv_tests.egg-info to /home/andres/Desktop/robot/ros2_ws/install/opencv_tests/lib/python3.10/site-packages/opencv_tests-3.2.1-py3.10.egg-info
[2.702s] running install_scripts
[2.742s] Installing broadcast script to /home/andres/Desktop/robot/ros2_ws/install/opencv_tests/lib/opencv_tests
[2.743s] Installing rosfacedetect script to /home/andres/Desktop/robot/ros2_ws/install/opencv_tests/lib/opencv_tests
[2.743s] Installing source script to /home/andres/Desktop/robot/ros2_ws/install/opencv_tests/lib/opencv_tests
[2.744s] writing list of installed files to '/home/andres/Desktop/robot/ros2_ws/build/opencv_tests/install.log'
[2.866s] Invoked command in '/home/andres/Desktop/robot/ros2_ws/src/vision_opencv/opencv_tests' returned '0': AMENT_PREFIX_PATH=/home/andres/Desktop/robot/ros2_ws/install/cv_bridge:${AMENT_PREFIX_PATH} CMAKE_PREFIX_PATH=/home/andres/Desktop/robot/ros2_ws/install/cv_bridge:${CMAKE_PREFIX_PATH} LD_LIBRARY_PATH=/home/andres/Desktop/robot/ros2_ws/install/cv_bridge/lib:${LD_LIBRARY_PATH} PYTHONPATH=/home/andres/Desktop/robot/ros2_ws/build/opencv_tests/prefix_override:/home/andres/Desktop/robot/ros2_ws/install/opencv_tests/lib/python3.10/site-packages:/home/andres/Desktop/robot/ros2_ws/install/cv_bridge/local/lib/python3.10/dist-packages:${PYTHONPATH} /usr/bin/python3 setup.py egg_info --egg-base ../../../build/opencv_tests build --build-base /home/andres/Desktop/robot/ros2_ws/build/opencv_tests/build install --record /home/andres/Desktop/robot/ros2_ws/build/opencv_tests/install.log --single-version-externally-managed
