[0.066s] Invoking command in '/home/andres/Desktop/robot/ros2_ws/build/my_bot': CMAKE_PREFIX_PATH=${CMAKE_PREFIX_PATH}:/home/andres/Desktop/robot/ros2_ws/install/pcd_publisher:/home/andres/Desktop/robot/ros2_ws/install/pcd_demo:/home/andres/Desktop/robot/ros2_ws/install/opencv_tests:/home/andres/Desktop/robot/ros2_ws/install/my_py_pkg:/opt/ros/humble /usr/bin/cmake /home/andres/Desktop/robot/ros2_ws/src/my_bot -DAMENT_CMAKE_SYMLINK_INSTALL=1 -DCMAKE_INSTALL_PREFIX=/home/andres/Desktop/robot/ros2_ws/install/my_bot
[0.150s] -- The C compiler identification is GNU 11.4.0
[0.227s] -- The CXX compiler identification is GNU 11.4.0
[0.245s] -- Detecting C compiler ABI info
[0.418s] -- Detecting C compiler ABI info - done
[0.436s] -- Check for working C compiler: /usr/bin/cc - skipped
[0.436s] -- Detecting C compile features
[0.437s] -- Detecting C compile features - done
[0.445s] -- Detecting CXX compiler ABI info
[0.633s] -- Detecting CXX compiler ABI info - done
[0.640s] -- Check for working CXX compiler: /usr/bin/c++ - skipped
[0.640s] -- Detecting CXX compile features
[0.640s] -- Detecting CXX compile features - done
[0.645s] -- Found ament_cmake: 1.3.8 (/opt/ros/humble/share/ament_cmake/cmake)
[0.956s] -- Found Python3: /usr/bin/python3 (found version "3.10.12") found components: Interpreter 
[1.014s] -- Override CMake install command with custom implementation using symlinks instead of copying resources
[1.083s] -- Found ament_lint_auto: 0.12.10 (/opt/ros/humble/share/ament_lint_auto/cmake)
[1.187s] -- Added test 'copyright' to check source files copyright and LICENSE
[1.189s] -- Added test 'flake8' to check Python code syntax and style conventions
[1.190s] -- Added test 'lint_cmake' to check CMake code style
[1.190s] -- Added test 'pep257' to check Python code against some of the docstring style conventions in PEP 257
[1.192s] -- Added test 'xmllint' to check XML markup files
[1.194s] -- Configuring done
[1.196s] -- Generating done
[1.197s] -- Build files have been written to: /home/andres/Desktop/robot/ros2_ws/build/my_bot
[1.202s] Invoked command in '/home/andres/Desktop/robot/ros2_ws/build/my_bot' returned '0': CMAKE_PREFIX_PATH=${CMAKE_PREFIX_PATH}:/home/andres/Desktop/robot/ros2_ws/install/pcd_publisher:/home/andres/Desktop/robot/ros2_ws/install/pcd_demo:/home/andres/Desktop/robot/ros2_ws/install/opencv_tests:/home/andres/Desktop/robot/ros2_ws/install/my_py_pkg:/opt/ros/humble /usr/bin/cmake /home/andres/Desktop/robot/ros2_ws/src/my_bot -DAMENT_CMAKE_SYMLINK_INSTALL=1 -DCMAKE_INSTALL_PREFIX=/home/andres/Desktop/robot/ros2_ws/install/my_bot
[1.204s] Invoking command in '/home/andres/Desktop/robot/ros2_ws/build/my_bot': CMAKE_PREFIX_PATH=${CMAKE_PREFIX_PATH}:/home/andres/Desktop/robot/ros2_ws/install/pcd_publisher:/home/andres/Desktop/robot/ros2_ws/install/pcd_demo:/home/andres/Desktop/robot/ros2_ws/install/opencv_tests:/home/andres/Desktop/robot/ros2_ws/install/my_py_pkg:/opt/ros/humble /usr/bin/cmake --build /home/andres/Desktop/robot/ros2_ws/build/my_bot -- -j16 -l16
[1.272s] Invoked command in '/home/andres/Desktop/robot/ros2_ws/build/my_bot' returned '0': CMAKE_PREFIX_PATH=${CMAKE_PREFIX_PATH}:/home/andres/Desktop/robot/ros2_ws/install/pcd_publisher:/home/andres/Desktop/robot/ros2_ws/install/pcd_demo:/home/andres/Desktop/robot/ros2_ws/install/opencv_tests:/home/andres/Desktop/robot/ros2_ws/install/my_py_pkg:/opt/ros/humble /usr/bin/cmake --build /home/andres/Desktop/robot/ros2_ws/build/my_bot -- -j16 -l16
[1.345s] Invoking command in '/home/andres/Desktop/robot/ros2_ws/build/my_bot': CMAKE_PREFIX_PATH=${CMAKE_PREFIX_PATH}:/home/andres/Desktop/robot/ros2_ws/install/pcd_publisher:/home/andres/Desktop/robot/ros2_ws/install/pcd_demo:/home/andres/Desktop/robot/ros2_ws/install/opencv_tests:/home/andres/Desktop/robot/ros2_ws/install/my_py_pkg:/opt/ros/humble /usr/bin/cmake --install /home/andres/Desktop/robot/ros2_ws/build/my_bot
[1.353s] -- Install configuration: ""
[1.353s] -- Execute custom install script
[1.354s] -- Symlinking: /home/andres/Desktop/robot/ros2_ws/install/my_bot/share/my_bot/config/empty.yaml
[1.379s] -- Symlinking: /home/andres/Desktop/robot/ros2_ws/install/my_bot/share/my_bot/description/robot.urdf.xacro
[1.406s] -- Symlinking: /home/andres/Desktop/robot/ros2_ws/install/my_bot/share/my_bot/launch/rsp.launch.py
[1.433s] -- Symlinking: /home/andres/Desktop/robot/ros2_ws/install/my_bot/share/my_bot/worlds/empty.world
[1.460s] -- Symlinking: /home/andres/Desktop/robot/ros2_ws/install/my_bot/share/ament_index/resource_index/package_run_dependencies/my_bot
[1.488s] -- Symlinking: /home/andres/Desktop/robot/ros2_ws/install/my_bot/share/ament_index/resource_index/parent_prefix_path/my_bot
[1.515s] -- Symlinking: /home/andres/Desktop/robot/ros2_ws/install/my_bot/share/my_bot/environment/ament_prefix_path.sh
[1.542s] -- Symlinking: /home/andres/Desktop/robot/ros2_ws/install/my_bot/share/my_bot/environment/ament_prefix_path.dsv
[1.568s] -- Symlinking: /home/andres/Desktop/robot/ros2_ws/install/my_bot/share/my_bot/environment/path.sh
[1.594s] -- Symlinking: /home/andres/Desktop/robot/ros2_ws/install/my_bot/share/my_bot/environment/path.dsv
[1.622s] -- Symlinking: /home/andres/Desktop/robot/ros2_ws/install/my_bot/share/my_bot/local_setup.bash
[1.649s] -- Symlinking: /home/andres/Desktop/robot/ros2_ws/install/my_bot/share/my_bot/local_setup.sh
[1.675s] -- Symlinking: /home/andres/Desktop/robot/ros2_ws/install/my_bot/share/my_bot/local_setup.zsh
[1.702s] -- Symlinking: /home/andres/Desktop/robot/ros2_ws/install/my_bot/share/my_bot/local_setup.dsv
[1.729s] -- Symlinking: /home/andres/Desktop/robot/ros2_ws/install/my_bot/share/my_bot/package.dsv
[1.741s] -- Symlinking: /home/andres/Desktop/robot/ros2_ws/install/my_bot/share/ament_index/resource_index/packages/my_bot
[1.767s] -- Symlinking: /home/andres/Desktop/robot/ros2_ws/install/my_bot/share/my_bot/cmake/my_botConfig.cmake
[1.793s] -- Symlinking: /home/andres/Desktop/robot/ros2_ws/install/my_bot/share/my_bot/cmake/my_botConfig-version.cmake
[1.819s] -- Symlinking: /home/andres/Desktop/robot/ros2_ws/install/my_bot/share/my_bot/package.xml
[1.848s] Invoked command in '/home/andres/Desktop/robot/ros2_ws/build/my_bot' returned '0': CMAKE_PREFIX_PATH=${CMAKE_PREFIX_PATH}:/home/andres/Desktop/robot/ros2_ws/install/pcd_publisher:/home/andres/Desktop/robot/ros2_ws/install/pcd_demo:/home/andres/Desktop/robot/ros2_ws/install/opencv_tests:/home/andres/Desktop/robot/ros2_ws/install/my_py_pkg:/opt/ros/humble /usr/bin/cmake --install /home/andres/Desktop/robot/ros2_ws/build/my_bot
